   4.9372000e+01   5.4202400e+02   5.3927000e+01   5.4860000e+02   2.0000000e+00
   5.3927000e+01   5.4860000e+02   4.9683000e+01   5.4975500e+02   2.0000000e+00
   4.9683000e+01   5.4975500e+02   4.5424000e+01   5.4298300e+02   2.0000000e+00
   4.5424000e+01   5.4298300e+02   2.6051000e+01   4.9020000e+02   2.0000000e+00
   2.6051000e+01   4.9020000e+02   2.5904000e+01   4.8980000e+02   2.0000000e+00
   2.5904000e+01   4.8980000e+02   1.9000000e+01   4.7099000e+02   2.0000000e+00
   1.9000000e+01   4.7099000e+02   1.9000000e+01  -9.8000000e+00   2.0000000e+00
   1.9000000e+01  -9.8000000e+00   1.9000000e+01  -1.0200000e+01   2.0000000e+00
   1.9000000e+01  -1.0200000e+01   1.9000000e+01  -3.0000000e+01   2.0000000e+00
   1.9000000e+01  -3.0000000e+01   8.4250000e+00  -4.9865000e+01   2.0000000e+00
   8.4250000e+00  -4.9865000e+01   8.4250000e+00  -4.5700000e+02   2.0000000e+00
   8.4250000e+00  -4.5700000e+02   4.5000000e+00  -4.6700000e+02   2.0000000e+00
   4.5000000e+00  -4.6700000e+02   4.5000000e+00  -4.9200000e+02   2.0000000e+00
   4.5000000e+00  -4.9200000e+02   4.9000000e+00  -4.9200000e+02   2.0000000e+00
   4.9000000e+00  -4.9200000e+02   4.9000000e+00  -4.6700000e+02   2.0000000e+00
   4.9000000e+00  -4.6700000e+02   8.9250000e+00  -4.5700000e+02   2.0000000e+00
   8.9250000e+00  -4.5700000e+02   8.9250000e+00  -5.0000000e+01   2.0000000e+00
   8.9250000e+00  -5.0000000e+01   2.0000000e+01  -3.0000000e+01   2.0000000e+00
   2.0000000e+01  -3.0000000e+01   2.0000000e+01  -1.0200000e+01   2.0000000e+00
   2.0000000e+01  -1.0200000e+01   2.0000000e+01  -9.8000000e+00   2.0000000e+00
   2.0000000e+01  -9.8000000e+00   2.0000000e+01   4.7080500e+02   2.0000000e+00
   2.0000000e+01   4.7080500e+02   2.7834000e+01   4.8980000e+02   2.0000000e+00
   2.7834000e+01   4.8980000e+02   2.7999000e+01   4.9020000e+02   2.0000000e+00
   2.7999000e+01   4.9020000e+02   4.9372000e+01   5.4202400e+02   2.0000000e+00
   4.1543000e+01   5.4383500e+02   4.5496000e+01   5.5078900e+02   2.0000000e+00
   4.5496000e+01   5.5078900e+02   4.1254000e+01   5.5173500e+02   2.0000000e+00
   4.1254000e+01   5.5173500e+02   3.7623000e+01   5.4460700e+02   2.0000000e+00
   3.7623000e+01   5.4460700e+02   2.1257000e+01   4.9020000e+02   2.0000000e+00
   2.1257000e+01   4.9020000e+02   2.1137000e+01   4.8980000e+02   2.0000000e+00
   2.1137000e+01   4.8980000e+02   1.5750000e+01   4.7189200e+02   2.0000000e+00
   1.5750000e+01   4.7189200e+02   1.5750000e+01  -9.8000000e+00   2.0000000e+00
   1.5750000e+01  -9.8000000e+00   1.5750000e+01  -1.0200000e+01   2.0000000e+00
   1.5750000e+01  -1.0200000e+01   1.5750000e+01  -3.0000000e+01   2.0000000e+00
   1.5750000e+01  -3.0000000e+01   7.5250000e+00  -4.9651000e+01   2.0000000e+00
   7.5250000e+00  -4.9651000e+01   7.5250000e+00  -4.5700000e+02   2.0000000e+00
   7.5250000e+00  -4.5700000e+02   3.7750000e+00  -4.6700000e+02   2.0000000e+00
   3.7750000e+00  -4.6700000e+02   3.7750000e+00  -4.9700000e+02   2.0000000e+00
   3.7750000e+00  -4.9700000e+02   4.1000000e+00  -4.9700000e+02   2.0000000e+00
   4.1000000e+00  -4.9700000e+02   4.1000000e+00  -4.6700000e+02   2.0000000e+00
   4.1000000e+00  -4.6700000e+02   8.0250000e+00  -4.5700000e+02   2.0000000e+00
   8.0250000e+00  -4.5700000e+02   8.0250000e+00  -4.9756000e+01   2.0000000e+00
   8.0250000e+00  -4.9756000e+01   1.6750000e+01  -3.0000000e+01   2.0000000e+00
   1.6750000e+01  -3.0000000e+01   1.6750000e+01  -1.0200000e+01   2.0000000e+00
   1.6750000e+01  -1.0200000e+01   1.6750000e+01  -9.8000000e+00   2.0000000e+00
   1.6750000e+01  -9.8000000e+00   1.6750000e+01   4.7174100e+02   2.0000000e+00
   1.6750000e+01   4.7174100e+02   2.2960000e+01   4.8980000e+02   2.0000000e+00
   2.2960000e+01   4.8980000e+02   2.3098000e+01   4.9020000e+02   2.0000000e+00
   2.3098000e+01   4.9020000e+02   4.1543000e+01   5.4383500e+02   2.0000000e+00
   3.3973000e+01   5.4524900e+02   3.7293000e+01   5.5252800e+02   2.0000000e+00
   3.7293000e+01   5.5252800e+02   3.3060000e+01   5.5328100e+02   2.0000000e+00
   3.3060000e+01   5.5328100e+02   3.0085000e+01   5.4585400e+02   2.0000000e+00
   3.0085000e+01   5.4585400e+02   1.6717000e+01   4.9020000e+02   2.0000000e+00
   1.6717000e+01   4.9020000e+02   1.6621000e+01   4.8980000e+02   2.0000000e+00
   1.6621000e+01   4.8980000e+02   1.2500000e+01   4.7264300e+02   2.0000000e+00
   1.2500000e+01   4.7264300e+02   1.2500000e+01  -9.8000000e+00   2.0000000e+00
   1.2500000e+01  -9.8000000e+00   1.2500000e+01  -1.0200000e+01   2.0000000e+00
   1.2500000e+01  -1.0200000e+01   1.2500000e+01  -3.0000000e+01   2.0000000e+00
   1.2500000e+01  -3.0000000e+01   1.1604000e+01  -3.3000000e+01   2.0000000e+00
   1.1604000e+01  -3.3000000e+01   1.2531000e+01  -3.3000000e+01   2.0000000e+00
   1.2531000e+01  -3.3000000e+01   1.3500000e+01  -3.0000000e+01   2.0000000e+00
   1.3500000e+01  -3.0000000e+01   1.3500000e+01  -1.0200000e+01   2.0000000e+00
   1.3500000e+01  -1.0200000e+01   1.3500000e+01  -9.8000000e+00   2.0000000e+00
   1.3500000e+01  -9.8000000e+00   1.3500000e+01   4.7252300e+02   2.0000000e+00
   1.3500000e+01   4.7252300e+02   1.8364000e+01   4.8980000e+02   2.0000000e+00
   1.8364000e+01   4.8980000e+02   1.8476000e+01   4.9020000e+02   2.0000000e+00
   1.8476000e+01   4.9020000e+02   3.3973000e+01   5.4524900e+02   2.0000000e+00
   2.5988000e+01   5.4640700e+02   2.8586000e+01   5.5397300e+02   2.0000000e+00
   2.8586000e+01   5.5397300e+02   2.4366000e+01   5.5453100e+02   2.0000000e+00
   2.4366000e+01   5.5453100e+02   2.2132000e+01   5.4684900e+02   2.0000000e+00
   2.2132000e+01   5.4684900e+02   1.2219000e+01   4.9020000e+02   2.0000000e+00
   1.2219000e+01   4.9020000e+02   1.2149000e+01   4.8980000e+02   2.0000000e+00
   1.2149000e+01   4.8980000e+02   9.2500000e+00   4.7323300e+02   2.0000000e+00
   9.2500000e+00   4.7323300e+02   9.2500000e+00  -9.8000000e+00   2.0000000e+00
   9.2500000e+00  -9.8000000e+00   9.2500000e+00  -1.0200000e+01   2.0000000e+00
   9.2500000e+00  -1.0200000e+01   9.2500000e+00  -3.0000000e+01   2.0000000e+00
   9.2500000e+00  -3.0000000e+01   1.9250000e+00  -4.8829000e+01   2.0000000e+00
   1.9250000e+00  -4.8829000e+01   1.9250000e+00  -4.5700000e+02   2.0000000e+00
   1.9250000e+00  -4.5700000e+02   1.5250000e+00  -4.6700000e+02   2.0000000e+00
   1.5250000e+00  -4.6700000e+02   1.5250000e+00  -4.9700000e+02   2.0000000e+00
   1.5250000e+00  -4.9700000e+02   2.5750000e+00  -4.9700000e+02   2.0000000e+00
   2.5750000e+00  -4.9700000e+02   2.5750000e+00  -4.6700000e+02   2.0000000e+00
   2.5750000e+00  -4.6700000e+02   6.3250000e+00  -4.5700000e+02   2.0000000e+00
   6.3250000e+00  -4.5700000e+02   6.3250000e+00  -4.9447000e+01   2.0000000e+00
   6.3250000e+00  -4.9447000e+01   1.0250000e+01  -3.0000000e+01   2.0000000e+00
   1.0250000e+01  -3.0000000e+01   1.0250000e+01  -1.0200000e+01   2.0000000e+00
   1.0250000e+01  -1.0200000e+01   1.0250000e+01  -9.8000000e+00   2.0000000e+00
   1.0250000e+01  -9.8000000e+00   1.0250000e+01   4.7314700e+02   2.0000000e+00
   1.0250000e+01   4.7314700e+02   1.3827000e+01   4.8980000e+02   2.0000000e+00
   1.3827000e+01   4.8980000e+02   1.3913000e+01   4.9020000e+02   2.0000000e+00
   1.3913000e+01   4.9020000e+02   2.5988000e+01   5.4640700e+02   2.0000000e+00
   1.8208000e+01   5.4722400e+02   2.0061000e+01   5.5500600e+02   2.0000000e+00
   2.0061000e+01   5.5500600e+02   1.5853000e+01   5.5538000e+02   2.0000000e+00
   1.5853000e+01   5.5538000e+02   1.4380000e+01   5.4751700e+02   2.0000000e+00
   1.4380000e+01   5.4751700e+02   7.8770000e+00   4.9020000e+02   2.0000000e+00
   7.8770000e+00   4.9020000e+02   7.8320000e+00   4.8980000e+02   2.0000000e+00
   7.8320000e+00   4.8980000e+02   6.0000000e+00   4.7365700e+02   2.0000000e+00
   6.0000000e+00   4.7365700e+02   6.0000000e+00  -9.8000000e+00   2.0000000e+00
   6.0000000e+00  -9.8000000e+00   6.0000000e+00  -1.0200000e+01   2.0000000e+00
   6.0000000e+00  -1.0200000e+01   6.0000000e+00  -3.0000000e+01   2.0000000e+00
   6.0000000e+00  -3.0000000e+01   5.2350000e+00  -3.3000000e+01   2.0000000e+00
   5.2350000e+00  -3.3000000e+01   6.1330000e+00  -3.3000000e+01   2.0000000e+00
   6.1330000e+00  -3.3000000e+01   7.0000000e+00  -3.0000000e+01   2.0000000e+00
   7.0000000e+00  -3.0000000e+01   7.0000000e+00  -1.0200000e+01   2.0000000e+00
   7.0000000e+00  -1.0200000e+01   7.0000000e+00  -9.8000000e+00   2.0000000e+00
   7.0000000e+00  -9.8000000e+00   7.0000000e+00   4.7360200e+02   2.0000000e+00
   7.0000000e+00   4.7360200e+02   9.4660000e+00   4.8980000e+02   2.0000000e+00
   9.4660000e+00   4.8980000e+02   9.5270000e+00   4.9020000e+02   2.0000000e+00
   9.5270000e+00   4.9020000e+02   1.8208000e+01   5.4722400e+02   2.0000000e+00
   1.0165000e+01   5.4775900e+02   1.1212000e+01   5.5569100e+02   2.0000000e+00
   1.1212000e+01   5.5569100e+02   7.0110000e+00   5.5587900e+02   2.0000000e+00
   7.0110000e+00   5.5587900e+02   6.3550000e+00   5.4790600e+02   2.0000000e+00
   6.3550000e+00   5.4790600e+02   3.5440000e+00   4.9020000e+02   2.0000000e+00
   3.5440000e+00   4.9020000e+02   3.5240000e+00   4.8980000e+02   2.0000000e+00
   3.5240000e+00   4.8980000e+02   2.7500000e+00   4.7390700e+02   2.0000000e+00
   2.7500000e+00   4.7390700e+02   2.7500000e+00  -9.8000000e+00   2.0000000e+00
   2.7500000e+00  -9.8000000e+00   2.7500000e+00  -1.0200000e+01   2.0000000e+00
   2.7500000e+00  -1.0200000e+01   2.7500000e+00  -3.0000000e+01   2.0000000e+00
   2.7500000e+00  -3.0000000e+01   2.3920000e+00  -3.3000000e+01   2.0000000e+00
   2.3920000e+00  -3.3000000e+01   3.2890000e+00  -3.3000000e+01   2.0000000e+00
   3.2890000e+00  -3.3000000e+01   3.7500000e+00  -3.0000000e+01   2.0000000e+00
   3.7500000e+00  -3.0000000e+01   3.7500000e+00  -1.0200000e+01   2.0000000e+00
   3.7500000e+00  -1.0200000e+01   3.7500000e+00  -9.8000000e+00   2.0000000e+00
   3.7500000e+00  -9.8000000e+00   3.7500000e+00   4.7388400e+02   2.0000000e+00
   3.7500000e+00   4.7388400e+02   5.1320000e+00   4.8980000e+02   2.0000000e+00
   5.1320000e+00   4.8980000e+02   5.1670000e+00   4.9020000e+02   2.0000000e+00
   5.1670000e+00   4.9020000e+02   1.0165000e+01   5.4775900e+02   2.0000000e+00
   2.2070000e+00   5.4798900e+02   2.4360000e+00   5.5598500e+02   2.0000000e+00
   2.4360000e+00   5.5598500e+02  -1.7620000e+00   5.5599200e+02   2.0000000e+00
  -1.7620000e+00   5.5599200e+02  -1.5960000e+00   5.4799400e+02   2.0000000e+00
  -1.5960000e+00   5.4799400e+02  -7.4000000e-01   4.9020000e+02   2.0000000e+00
  -7.4000000e-01   4.9020000e+02  -7.3400000e-01   4.8980000e+02   2.0000000e+00
  -7.3400000e-01   4.8980000e+02  -5.0000000e-01   4.7397800e+02   2.0000000e+00
  -5.0000000e-01   4.7397800e+02  -5.0000000e-01  -9.8000000e+00   2.0000000e+00
  -5.0000000e-01  -9.8000000e+00  -5.0000000e-01  -1.0200000e+01   2.0000000e+00
  -5.0000000e-01  -1.0200000e+01  -5.0000000e-01  -3.0000000e+01   2.0000000e+00
  -5.0000000e-01  -3.0000000e+01  -4.4800000e-01  -3.3000000e+01   2.0000000e+00
  -4.4800000e-01  -3.3000000e+01   4.4800000e-01  -3.3000000e+01   2.0000000e+00
   4.4800000e-01  -3.3000000e+01   5.0000000e-01  -3.0000000e+01   2.0000000e+00
   5.0000000e-01  -3.0000000e+01   5.0000000e-01  -1.0200000e+01   2.0000000e+00
   5.0000000e-01  -1.0200000e+01   5.0000000e-01  -9.8000000e+00   2.0000000e+00
   5.0000000e-01  -9.8000000e+00   5.0000000e-01   4.7398800e+02   2.0000000e+00
   5.0000000e-01   4.7398800e+02   8.6500000e-01   4.8980000e+02   2.0000000e+00
   8.6500000e-01   4.8980000e+02   8.7400000e-01   4.9020000e+02   2.0000000e+00
   8.7400000e-01   4.9020000e+02   2.2070000e+00   5.4798900e+02   2.0000000e+00
  -5.9460000e+00   5.4791800e+02  -6.5600000e+00   5.5589400e+02   2.0000000e+00
  -6.5600000e+00   5.5589400e+02  -1.0760000e+01   5.5571500e+02   2.0000000e+00
  -1.0760000e+01   5.5571500e+02  -9.7550000e+00   5.4777800e+02   2.0000000e+00
  -9.7550000e+00   5.4777800e+02  -5.0770000e+00   4.9020000e+02   2.0000000e+00
  -5.0770000e+00   4.9020000e+02  -5.0450000e+00   4.8980000e+02   2.0000000e+00
  -5.0450000e+00   4.8980000e+02  -3.7500000e+00   4.7386700e+02   2.0000000e+00
  -3.7500000e+00   4.7386700e+02  -3.7500000e+00  -9.8000000e+00   2.0000000e+00
  -3.7500000e+00  -9.8000000e+00  -3.7500000e+00  -1.0200000e+01   2.0000000e+00
  -3.7500000e+00  -1.0200000e+01  -3.7500000e+00  -3.0000000e+01   2.0000000e+00
  -3.7500000e+00  -3.0000000e+01  -3.2880000e+00  -3.3000000e+01   2.0000000e+00
  -3.2880000e+00  -3.3000000e+01  -2.3920000e+00  -3.3000000e+01   2.0000000e+00
  -2.3920000e+00  -3.3000000e+01  -2.7500000e+00  -3.0000000e+01   2.0000000e+00
  -2.7500000e+00  -3.0000000e+01  -2.7500000e+00  -1.0200000e+01   2.0000000e+00
  -2.7500000e+00  -1.0200000e+01  -2.7500000e+00  -9.8000000e+00   2.0000000e+00
  -2.7500000e+00  -9.8000000e+00  -2.7500000e+00   4.7391100e+02   2.0000000e+00
  -2.7500000e+00   4.7391100e+02  -3.4360000e+00   4.8980000e+02   2.0000000e+00
  -3.4360000e+00   4.8980000e+02  -3.4530000e+00   4.9020000e+02   2.0000000e+00
  -3.4530000e+00   4.9020000e+02  -5.9460000e+00   5.4791800e+02   2.0000000e+00
  -1.3965000e+01   5.4754500e+02  -1.5397000e+01   5.5541600e+02   2.0000000e+00
  -1.5397000e+01   5.5541600e+02  -1.9605000e+01   5.5505100e+02   2.0000000e+00
  -1.9605000e+01   5.5505100e+02  -1.7793000e+01   5.4725900e+02   2.0000000e+00
  -1.7793000e+01   5.4725900e+02  -9.4350000e+00   4.9020000e+02   2.0000000e+00
  -9.4350000e+00   4.9020000e+02  -9.3770000e+00   4.8980000e+02   2.0000000e+00
  -9.3770000e+00   4.8980000e+02  -7.0000000e+00   4.7357400e+02   2.0000000e+00
  -7.0000000e+00   4.7357400e+02  -7.0000000e+00  -9.8000000e+00   2.0000000e+00
  -7.0000000e+00  -9.8000000e+00  -7.0000000e+00  -1.0200000e+01   2.0000000e+00
  -7.0000000e+00  -1.0200000e+01  -7.0000000e+00  -3.0000000e+01   2.0000000e+00
  -7.0000000e+00  -3.0000000e+01  -6.1310000e+00  -3.3000000e+01   2.0000000e+00
  -6.1310000e+00  -3.3000000e+01  -5.2340000e+00  -3.3000000e+01   2.0000000e+00
  -5.2340000e+00  -3.3000000e+01  -6.0000000e+00  -3.0000000e+01   2.0000000e+00
  -6.0000000e+00  -3.0000000e+01  -6.0000000e+00  -1.0200000e+01   2.0000000e+00
  -6.0000000e+00  -1.0200000e+01  -6.0000000e+00  -9.8000000e+00   2.0000000e+00
  -6.0000000e+00  -9.8000000e+00  -6.0000000e+00   4.7365200e+02   2.0000000e+00
  -6.0000000e+00   4.7365200e+02  -7.7410000e+00   4.8980000e+02   2.0000000e+00
  -7.7410000e+00   4.8980000e+02  -7.7840000e+00   4.9020000e+02   2.0000000e+00
  -7.7840000e+00   4.9020000e+02  -1.3965000e+01   5.4754500e+02   2.0000000e+00
  -2.1708000e+01   5.4689300e+02  -2.3902000e+01   5.5458700e+02   2.0000000e+00
  -2.3902000e+01   5.5458700e+02  -2.8121000e+01   5.5403900e+02   2.0000000e+00
  -2.8121000e+01   5.5403900e+02  -2.5562000e+01   5.4645900e+02   2.0000000e+00
  -2.5562000e+01   5.4645900e+02  -1.3818000e+01   4.9020000e+02   2.0000000e+00
  -1.3818000e+01   4.9020000e+02  -1.3734000e+01   4.8980000e+02   2.0000000e+00
  -1.3734000e+01   4.8980000e+02  -1.0250000e+01   4.7311100e+02   2.0000000e+00
  -1.0250000e+01   4.7311100e+02  -1.0250000e+01  -9.8000000e+00   2.0000000e+00
  -1.0250000e+01  -9.8000000e+00  -1.0250000e+01  -1.0200000e+01   2.0000000e+00
  -1.0250000e+01  -1.0200000e+01  -1.0250000e+01  -3.0000000e+01   2.0000000e+00
  -1.0250000e+01  -3.0000000e+01  -6.3250000e+00  -4.9398000e+01   2.0000000e+00
  -6.3250000e+00  -4.9398000e+01  -6.3250000e+00  -4.5700000e+02   2.0000000e+00
  -6.3250000e+00  -4.5700000e+02  -2.5750000e+00  -4.6700000e+02   2.0000000e+00
  -2.5750000e+00  -4.6700000e+02  -2.5750000e+00  -4.9700000e+02   2.0000000e+00
  -2.5750000e+00  -4.9700000e+02  -1.5250000e+00  -4.9700000e+02   2.0000000e+00
  -1.5250000e+00  -4.9700000e+02  -1.5250000e+00  -4.6700000e+02   2.0000000e+00
  -1.5250000e+00  -4.6700000e+02  -1.9250000e+00  -4.5700000e+02   2.0000000e+00
  -1.9250000e+00  -4.5700000e+02  -1.9250000e+00  -4.8779000e+01   2.0000000e+00
  -1.9250000e+00  -4.8779000e+01  -9.2500000e+00  -3.0000000e+01   2.0000000e+00
  -9.2500000e+00  -3.0000000e+01  -9.2500000e+00  -1.0200000e+01   2.0000000e+00
  -9.2500000e+00  -1.0200000e+01  -9.2500000e+00  -9.8000000e+00   2.0000000e+00
  -9.2500000e+00  -9.8000000e+00  -9.2500000e+00   4.7322000e+02   2.0000000e+00
  -9.2500000e+00   4.7322000e+02  -1.2054000e+01   4.8980000e+02   2.0000000e+00
  -1.2054000e+01   4.8980000e+02  -1.2121000e+01   4.9020000e+02   2.0000000e+00
  -1.2121000e+01   4.9020000e+02  -2.1708000e+01   5.4689300e+02   2.0000000e+00
  -2.9649000e+01   5.4591700e+02  -3.2584000e+01   5.5335900e+02   2.0000000e+00
  -3.2584000e+01   5.5335900e+02  -3.6817000e+01   5.5261700e+02   2.0000000e+00
  -3.6817000e+01   5.5261700e+02  -3.3535000e+01   5.4532100e+02   2.0000000e+00
  -3.3535000e+01   5.4532100e+02  -1.8374000e+01   4.9020000e+02   2.0000000e+00
  -1.8374000e+01   4.9020000e+02  -1.8264000e+01   4.8980000e+02   2.0000000e+00
  -1.8264000e+01   4.8980000e+02  -1.3500000e+01   4.7248000e+02   2.0000000e+00
  -1.3500000e+01   4.7248000e+02  -1.3500000e+01  -9.8000000e+00   2.0000000e+00
  -1.3500000e+01  -9.8000000e+00  -1.3500000e+01  -1.0200000e+01   2.0000000e+00
  -1.3500000e+01  -1.0200000e+01  -1.3500000e+01  -3.0000000e+01   2.0000000e+00
  -1.3500000e+01  -3.0000000e+01  -1.2528000e+01  -3.3000000e+01   2.0000000e+00
  -1.2528000e+01  -3.3000000e+01  -1.1601000e+01  -3.3000000e+01   2.0000000e+00
  -1.1601000e+01  -3.3000000e+01  -1.2500000e+01  -3.0000000e+01   2.0000000e+00
  -1.2500000e+01  -3.0000000e+01  -1.2500000e+01  -1.0200000e+01   2.0000000e+00
  -1.2500000e+01  -1.0200000e+01  -1.2500000e+01  -9.8000000e+00   2.0000000e+00
  -1.2500000e+01  -9.8000000e+00  -1.2500000e+01   4.7262200e+02   2.0000000e+00
  -1.2500000e+01   4.7262200e+02  -1.6519000e+01   4.8980000e+02   2.0000000e+00
  -1.6519000e+01   4.8980000e+02  -1.6613000e+01   4.9020000e+02   2.0000000e+00
  -1.6613000e+01   4.9020000e+02  -2.9649000e+01   5.4591700e+02   2.0000000e+00
  -3.7172000e+01   5.4469000e+02  -4.0766000e+01   5.5183700e+02   2.0000000e+00
  -4.0766000e+01   5.5183700e+02  -4.5007000e+01   5.5090400e+02   2.0000000e+00
  -4.5007000e+01   5.5090400e+02  -4.1091000e+01   5.4392800e+02   2.0000000e+00
  -4.1091000e+01   5.4392800e+02  -2.2987000e+01   4.9020000e+02   2.0000000e+00
  -2.2987000e+01   4.9020000e+02  -2.2852000e+01   4.8980000e+02   2.0000000e+00
  -2.2852000e+01   4.8980000e+02  -1.6750000e+01   4.7169100e+02   2.0000000e+00
  -1.6750000e+01   4.7169100e+02  -1.6750000e+01  -9.8000000e+00   2.0000000e+00
  -1.6750000e+01  -9.8000000e+00  -1.6750000e+01  -1.0200000e+01   2.0000000e+00
  -1.6750000e+01  -1.0200000e+01  -1.6750000e+01  -3.0000000e+01   2.0000000e+00
  -1.6750000e+01  -3.0000000e+01  -8.0250000e+00  -4.9682000e+01   2.0000000e+00
  -8.0250000e+00  -4.9682000e+01  -8.0250000e+00  -4.5700000e+02   2.0000000e+00
  -8.0250000e+00  -4.5700000e+02  -4.1000000e+00  -4.6700000e+02   2.0000000e+00
  -4.1000000e+00  -4.6700000e+02  -4.1000000e+00  -4.9700000e+02   2.0000000e+00
  -4.1000000e+00  -4.9700000e+02  -3.7750000e+00  -4.9700000e+02   2.0000000e+00
  -3.7750000e+00  -4.9700000e+02  -3.7750000e+00  -4.6700000e+02   2.0000000e+00
  -3.7750000e+00  -4.6700000e+02  -7.5250000e+00  -4.5700000e+02   2.0000000e+00
  -7.5250000e+00  -4.5700000e+02  -7.5250000e+00  -4.9576000e+01   2.0000000e+00
  -7.5250000e+00  -4.9576000e+01  -1.5750000e+01  -3.0000000e+01   2.0000000e+00
  -1.5750000e+01  -3.0000000e+01  -1.5750000e+01  -1.0200000e+01   2.0000000e+00
  -1.5750000e+01  -1.0200000e+01  -1.5750000e+01  -9.8000000e+00   2.0000000e+00
  -1.5750000e+01  -9.8000000e+00  -1.5750000e+01   4.7186500e+02   2.0000000e+00
  -1.5750000e+01   4.7186500e+02  -2.1026000e+01   4.8980000e+02   2.0000000e+00
  -2.1026000e+01   4.8980000e+02  -2.1143000e+01   4.9020000e+02   2.0000000e+00
  -2.1143000e+01   4.9020000e+02  -3.7172000e+01   5.4469000e+02   2.0000000e+00
  -4.4957000e+01   5.4309000e+02  -4.9180000e+01   5.4988500e+02   2.0000000e+00
  -4.9180000e+01   5.4988500e+02  -5.3424000e+01   5.4874300e+02   2.0000000e+00
  -5.3424000e+01   5.4874300e+02  -4.8903000e+01   5.4214300e+02   2.0000000e+00
  -4.8903000e+01   5.4214300e+02  -2.7874000e+01   4.9020000e+02   2.0000000e+00
  -2.7874000e+01   4.9020000e+02  -2.7712000e+01   4.8980000e+02   2.0000000e+00
  -2.7712000e+01   4.8980000e+02  -2.0000000e+01   4.7075000e+02   2.0000000e+00
  -2.0000000e+01   4.7075000e+02  -2.0000000e+01  -9.8000000e+00   2.0000000e+00
  -2.0000000e+01  -9.8000000e+00  -2.0000000e+01  -1.0200000e+01   2.0000000e+00
  -2.0000000e+01  -1.0200000e+01  -2.0000000e+01  -3.0000000e+01   2.0000000e+00
  -2.0000000e+01  -3.0000000e+01  -8.9250000e+00  -4.9902000e+01   2.0000000e+00
  -8.9250000e+00  -4.9902000e+01  -8.9250000e+00  -4.5700000e+02   2.0000000e+00
  -8.9250000e+00  -4.5700000e+02  -4.9000000e+00  -4.6700000e+02   2.0000000e+00
  -4.9000000e+00  -4.6700000e+02  -4.9000000e+00  -4.9600000e+02   2.0000000e+00
  -4.9000000e+00  -4.9600000e+02  -4.5000000e+00  -4.9600000e+02   2.0000000e+00
  -4.5000000e+00  -4.9600000e+02  -4.5000000e+00  -4.6700000e+02   2.0000000e+00
  -4.5000000e+00  -4.6700000e+02  -8.4250000e+00  -4.5700000e+02   2.0000000e+00
  -8.4250000e+00  -4.5700000e+02  -8.4250000e+00  -4.9767000e+01   2.0000000e+00
  -8.4250000e+00  -4.9767000e+01  -1.9000000e+01  -3.0000000e+01   2.0000000e+00
  -1.9000000e+01  -3.0000000e+01  -1.9000000e+01  -1.0200000e+01   2.0000000e+00
  -1.9000000e+01  -1.0200000e+01  -1.9000000e+01  -9.8000000e+00   2.0000000e+00
  -1.9000000e+01  -9.8000000e+00  -1.9000000e+01   4.7095800e+02   2.0000000e+00
  -1.9000000e+01   4.7095800e+02  -2.5780000e+01   4.8980000e+02   2.0000000e+00
  -2.5780000e+01   4.8980000e+02  -2.5924000e+01   4.9020000e+02   2.0000000e+00
  -2.5924000e+01   4.9020000e+02  -4.4957000e+01   5.4309000e+02   2.0000000e+00
   1.0983500e+02   5.0892500e+02   1.1257100e+02   5.0575400e+02   2.0000000e+00
   1.1257100e+02   5.0575400e+02   1.2021000e+02   5.0813000e+02   2.0000000e+00
   1.2021000e+02   5.0813000e+02   1.1739200e+02   5.1155200e+02   2.0000000e+00
   1.1739200e+02   5.1155200e+02   1.1102500e+02   5.1814900e+02   2.0000000e+00
   1.1102500e+02   5.1814900e+02   1.0419100e+02   5.2401000e+02   2.0000000e+00
   1.0419100e+02   5.2401000e+02   9.7084000e+01   5.2916100e+02   2.0000000e+00
   9.7084000e+01   5.2916100e+02   8.9577000e+01   5.3381300e+02   2.0000000e+00
   8.9577000e+01   5.3381300e+02   8.1789000e+01   5.3796000e+02   2.0000000e+00
   8.1789000e+01   5.3796000e+02   7.3816000e+01   5.4161000e+02   2.0000000e+00
   7.3816000e+01   5.4161000e+02   6.5734000e+01   5.4478600e+02   2.0000000e+00
   6.5734000e+01   5.4478600e+02   5.7854000e+01   5.4743300e+02   2.0000000e+00
   5.7854000e+01   5.4743300e+02   5.3036000e+01   5.4104600e+02   2.0000000e+00
   5.3036000e+01   5.4104600e+02   6.0422000e+01   5.3880300e+02   2.0000000e+00
   6.0422000e+01   5.3880300e+02   6.8045000e+01   5.3607000e+02   2.0000000e+00
   6.8045000e+01   5.3607000e+02   7.5608000e+01   5.3288100e+02   2.0000000e+00
   7.5608000e+01   5.3288100e+02   8.3036000e+01   5.2920800e+02   2.0000000e+00
   8.3036000e+01   5.2920800e+02   9.0229000e+01   5.2503700e+02   2.0000000e+00
   9.0229000e+01   5.2503700e+02   9.7068000e+01   5.2036800e+02   2.0000000e+00
   9.7068000e+01   5.2036800e+02   1.0366800e+02   5.1500800e+02   2.0000000e+00
   1.0366800e+02   5.1500800e+02   1.0983500e+02   5.0892500e+02   2.0000000e+00
  -5.2552000e+01   5.4118000e+02  -5.7337000e+01   5.4759200e+02   2.0000000e+00
  -5.7337000e+01   5.4759200e+02  -6.5202000e+01   5.4497800e+02   2.0000000e+00
  -6.5202000e+01   5.4497800e+02  -7.3271000e+01   5.4184000e+02   2.0000000e+00
  -7.3271000e+01   5.4184000e+02  -8.1235000e+01   5.3823200e+02   2.0000000e+00
  -8.1235000e+01   5.3823200e+02  -8.9020000e+01   5.3413200e+02   2.0000000e+00
  -8.9020000e+01   5.3413200e+02  -9.6530000e+01   5.2952900e+02   2.0000000e+00
  -9.6530000e+01   5.2952900e+02  -1.0365200e+02   5.2443100e+02   2.0000000e+00
  -1.0365200e+02   5.2443100e+02  -1.1051400e+02   5.1862600e+02   2.0000000e+00
  -1.1051400e+02   5.1862600e+02  -1.1692400e+02   5.1208600e+02   2.0000000e+00
  -1.1692400e+02   5.1208600e+02  -1.1977500e+02   5.0868300e+02   2.0000000e+00
  -1.1977500e+02   5.0868300e+02  -1.1214900e+02   5.0626800e+02   2.0000000e+00
  -1.1214900e+02   5.0626800e+02  -1.0938100e+02   5.0941900e+02   2.0000000e+00
  -1.0938100e+02   5.0941900e+02  -1.0317300e+02   5.1544600e+02   2.0000000e+00
  -1.0317300e+02   5.1544600e+02  -9.6548000e+01   5.2075200e+02   2.0000000e+00
  -9.6548000e+01   5.2075200e+02  -8.9697000e+01   5.2536900e+02   2.0000000e+00
  -8.9697000e+01   5.2536900e+02  -8.2503000e+01   5.2949200e+02   2.0000000e+00
  -8.2503000e+01   5.2949200e+02  -7.5081000e+01   5.3312000e+02   2.0000000e+00
  -7.5081000e+01   5.3312000e+02  -6.7530000e+01   5.3626900e+02   2.0000000e+00
  -6.7530000e+01   5.3626900e+02  -5.9922000e+01   5.3896700e+02   2.0000000e+00
  -5.9922000e+01   5.3896700e+02  -5.2552000e+01   5.4118000e+02   2.0000000e+00
   1.3500000e+01  -3.0000000e+01   1.2500000e+01  -3.0000000e+01   1.1000000e+01
   1.2500000e+01  -3.0000000e+01   6.6750000e+00  -4.9500000e+01   1.1000000e+01
   6.6750000e+00  -4.9500000e+01   6.6750000e+00  -4.5700000e+02   1.1000000e+01
   6.6750000e+00  -4.5700000e+02   2.9750000e+00  -4.6700000e+02   1.1000000e+01
   2.9750000e+00  -4.6700000e+02   2.9750000e+00  -4.9700000e+02   1.1000000e+01
   2.9750000e+00  -4.9700000e+02   3.3750000e+00  -4.9700000e+02   1.1000000e+01
   3.3750000e+00  -4.9700000e+02   3.3750000e+00  -4.6700000e+02   1.1000000e+01
   3.3750000e+00  -4.6700000e+02   7.1750000e+00  -4.5700000e+02   1.1000000e+01
   7.1750000e+00  -4.5700000e+02   7.1750000e+00  -4.9576000e+01   1.1000000e+01
   7.1750000e+00  -4.9576000e+01   1.3500000e+01  -3.0000000e+01   1.1000000e+01
   7.0000000e+00  -3.0000000e+01   6.0000000e+00  -3.0000000e+01   1.1000000e+01
   6.0000000e+00  -3.0000000e+01   1.2250000e+00  -4.8735000e+01   1.1000000e+01
   1.2250000e+00  -4.8735000e+01   1.2250000e+00  -4.5700000e+02   1.1000000e+01
   1.2250000e+00  -4.5700000e+02   8.7500000e-01  -4.6700000e+02   1.1000000e+01
   8.7500000e-01  -4.6700000e+02   8.7500000e-01  -4.9700000e+02   1.1000000e+01
   8.7500000e-01  -4.9700000e+02   1.1250000e+00  -4.9700000e+02   1.1000000e+01
   1.1250000e+00  -4.9700000e+02   1.1250000e+00  -4.6700000e+02   1.1000000e+01
   1.1250000e+00  -4.6700000e+02   1.5750000e+00  -4.5700000e+02   1.1000000e+01
   1.5750000e+00  -4.5700000e+02   1.5750000e+00  -4.8779000e+01   1.1000000e+01
   1.5750000e+00  -4.8779000e+01   7.0000000e+00  -3.0000000e+01   1.1000000e+01
   3.7500000e+00  -3.0000000e+01   2.7500000e+00  -3.0000000e+01   1.1000000e+01
   2.7500000e+00  -3.0000000e+01   5.2500000e-01  -4.8668000e+01   1.1000000e+01
   5.2500000e-01  -4.8668000e+01   5.2500000e-01  -4.5700000e+02   1.1000000e+01
   5.2500000e-01  -4.5700000e+02   3.7500000e-01  -4.6700000e+02   1.1000000e+01
   3.7500000e-01  -4.6700000e+02   3.7500000e-01  -4.9700000e+02   1.1000000e+01
   3.7500000e-01  -4.9700000e+02   6.2500000e-01  -4.9700000e+02   1.1000000e+01
   6.2500000e-01  -4.9700000e+02   6.2500000e-01  -4.6700000e+02   1.1000000e+01
   6.2500000e-01  -4.6700000e+02   8.7500000e-01  -4.5700000e+02   1.1000000e+01
   8.7500000e-01  -4.5700000e+02   8.7500000e-01  -4.8690000e+01   1.1000000e+01
   8.7500000e-01  -4.8690000e+01   3.7500000e+00  -3.0000000e+01   1.1000000e+01
   5.0000000e-01  -3.0000000e+01  -5.0000000e-01  -3.0000000e+01   1.1000000e+01
  -5.0000000e-01  -3.0000000e+01  -1.7500000e-01  -4.8645000e+01   1.1000000e+01
  -1.7500000e-01  -4.8645000e+01  -1.2500000e-01  -4.9700000e+02   1.1000000e+01
  -1.2500000e-01  -4.9700000e+02   1.2500000e-01  -4.9700000e+02   1.1000000e+01
   1.2500000e-01  -4.9700000e+02   1.7500000e-01  -4.8645000e+01   1.1000000e+01
   1.7500000e-01  -4.8645000e+01   5.0000000e-01  -3.0000000e+01   1.1000000e+01
  -2.7500000e+00  -3.0000000e+01  -3.7500000e+00  -3.0000000e+01   1.1000000e+01
  -3.7500000e+00  -3.0000000e+01  -8.7500000e-01  -4.8668000e+01   1.1000000e+01
  -8.7500000e-01  -4.8668000e+01  -8.7500000e-01  -4.5700000e+02   1.1000000e+01
  -8.7500000e-01  -4.5700000e+02  -6.2500000e-01  -4.6700000e+02   1.1000000e+01
  -6.2500000e-01  -4.6700000e+02  -6.2500000e-01  -4.9700000e+02   1.1000000e+01
  -6.2500000e-01  -4.9700000e+02  -3.7500000e-01  -4.9700000e+02   1.1000000e+01
  -3.7500000e-01  -4.9700000e+02  -3.7500000e-01  -4.6700000e+02   1.1000000e+01
  -3.7500000e-01  -4.6700000e+02  -5.2500000e-01  -4.5700000e+02   1.1000000e+01
  -5.2500000e-01  -4.5700000e+02  -5.2500000e-01  -4.8645000e+01   1.1000000e+01
  -5.2500000e-01  -4.8645000e+01  -2.7500000e+00  -3.0000000e+01   1.1000000e+01
  -6.0000000e+00  -3.0000000e+01  -7.0000000e+00  -3.0000000e+01   1.1000000e+01
  -7.0000000e+00  -3.0000000e+01  -1.5750000e+00  -4.8735000e+01   1.1000000e+01
  -1.5750000e+00  -4.8735000e+01  -1.5750000e+00  -4.5700000e+02   1.1000000e+01
  -1.5750000e+00  -4.5700000e+02  -1.1250000e+00  -4.6700000e+02   1.1000000e+01
  -1.1250000e+00  -4.6700000e+02  -1.1250000e+00  -4.9700000e+02   1.1000000e+01
  -1.1250000e+00  -4.9700000e+02  -8.7500000e-01  -4.9700000e+02   1.1000000e+01
  -8.7500000e-01  -4.9700000e+02  -8.7500000e-01  -4.6700000e+02   1.1000000e+01
  -8.7500000e-01  -4.6700000e+02  -1.2250000e+00  -4.5700000e+02   1.1000000e+01
  -1.2250000e+00  -4.5700000e+02  -1.2250000e+00  -4.8690000e+01   1.1000000e+01
  -1.2250000e+00  -4.8690000e+01  -6.0000000e+00  -3.0000000e+01   1.1000000e+01
  -1.2500000e+01  -3.0316000e+01  -1.3500000e+01  -3.0316000e+01   1.1000000e+01
  -1.3500000e+01  -3.0316000e+01  -7.1750000e+00  -4.9839000e+01   1.1000000e+01
  -7.1750000e+00  -4.9839000e+01  -7.1750000e+00  -4.5731600e+02   1.1000000e+01
  -7.1750000e+00  -4.5731600e+02  -3.3750000e+00  -4.6731600e+02   1.1000000e+01
  -3.3750000e+00  -4.6731600e+02  -3.3750000e+00  -4.9700000e+02   1.1000000e+01
  -3.3750000e+00  -4.9700000e+02  -2.9750000e+00  -4.9700000e+02   1.1000000e+01
  -2.9750000e+00  -4.9700000e+02  -2.9750000e+00  -4.6731600e+02   1.1000000e+01
  -2.9750000e+00  -4.6731600e+02  -6.6750000e+00  -4.5731600e+02   1.1000000e+01
  -6.6750000e+00  -4.5731600e+02  -6.6750000e+00  -4.9763000e+01   1.1000000e+01
  -6.6750000e+00  -4.9763000e+01  -1.2500000e+01  -3.0316000e+01   1.1000000e+01
